[
    {
        "month": 1,
        "Température moyenne": "1°",
        "Température maximale": "3°",
        "Température minimale": "-1°",
        "Température maximale record": "14°",
        "Température minimale record": "10°",
        "Vitesse du vent": "13km/h",
        "Température du vent": "-4°",
        "Précipitations moyennes par jour": "1mm",
        "Record de précipitations sur une journée": "15mm",
        "Humidité": "89%",
        "Visibilité": "8km",
        "Couverture nuageuse": "41%",
        "Heure du lever du soleil": "09:26:00",
        "Heure du coucher du soleil": "18:47:00",
        "Durée du jour": "9:21:0",
        "L'avis de historique-meteo.net": ""
    },
    {
        "month": 2,
        "Température moyenne": "4°",
        "Température maximale": "6°",
        "Température minimale": "1°",
        "Température maximale record": "14°",
        "Température minimale record": "9°",
        "Vitesse du vent": "11km/h",
        "Température du vent": "-1°",
        "Précipitations moyennes par jour": "1mm",
        "Record de précipitations sur une journée": "8mm",
        "Humidité": "86%",
        "Visibilité": "9km",
        "Couverture nuageuse": "38%",
        "Heure du lever du soleil": "09:07:00",
        "Heure du coucher du soleil": "19:28:00",
        "Durée du jour": "10:21:0",
        "L'avis de historique-meteo.net": ""
    },
    {
        "month": 3,
        "Température moyenne": "7°",
        "Température maximale": "9°",
        "Température minimale": "5°",
        "Température maximale record": "19°",
        "Température minimale record": "15°",
        "Vitesse du vent": "12km/h",
        "Température du vent": "3°",
        "Précipitations moyennes par jour": "2mm",
        "Record de précipitations sur une journée": "16mm",
        "Humidité": "86%",
        "Visibilité": "8km",
        "Couverture nuageuse": "47%",
        "Heure du lever du soleil": "08:23:00",
        "Heure du coucher du soleil": "20:10:00",
        "Durée du jour": "11:47:0",
        "L'avis de historique-meteo.net": ""
    },
    {
        "month": 4,
        "Température moyenne": "13°",
        "Température maximale": "16°",
        "Température minimale": "11°",
        "Température maximale record": "26°",
        "Température minimale record": "21°",
        "Vitesse du vent": "13km/h",
        "Température du vent": "10°",
        "Précipitations moyennes par jour": "1mm",
        "Record de précipitations sur une journée": "12mm",
        "Humidité": "77%",
        "Visibilité": "9km",
        "Couverture nuageuse": "26%",
        "Heure du lever du soleil": "07:25:00",
        "Heure du coucher du soleil": "20:50:00",
        "Durée du jour": "13:25:0",
        "L'avis de historique-meteo.net": ""
    },
    {
        "month": 5,
        "Température moyenne": "16°",
        "Température maximale": "19°",
        "Température minimale": "14°",
        "Température maximale record": "30°",
        "Température minimale record": "26°",
        "Vitesse du vent": "12km/h",
        "Température du vent": "14°",
        "Précipitations moyennes par jour": "3mm",
        "Record de précipitations sur une journée": "21mm",
        "Humidité": "80%",
        "Visibilité": "8km",
        "Couverture nuageuse": "37%",
        "Heure du lever du soleil": "06:31:00",
        "Heure du coucher du soleil": "21:26:00",
        "Durée du jour": "14:55:0",
        "L'avis de historique-meteo.net": ""
    },
    {
        "month": 6,
        "Température moyenne": "17°",
        "Température maximale": "19°",
        "Température minimale": "15°",
        "Température maximale record": "33°",
        "Température minimale record": "28°",
        "Vitesse du vent": "12km/h",
        "Température du vent": "15°",
        "Précipitations moyennes par jour": "3mm",
        "Record de précipitations sur une journée": "29mm",
        "Humidité": "84%",
        "Visibilité": "8km",
        "Couverture nuageuse": "47%",
        "Heure du lever du soleil": "05:58:00",
        "Heure du coucher du soleil": "21:39:00",
        "Durée du jour": "15:41:0",
        "L'avis de historique-meteo.net": ""
    },
    {
        "month": 7,
        "Température moyenne": "18°",
        "Température maximale": "20°",
        "Température minimale": "16°",
        "Température maximale record": "32°",
        "Température minimale record": "28°",
        "Vitesse du vent": "12km/h",
        "Température du vent": "16°",
        "Précipitations moyennes par jour": "2mm",
        "Record de précipitations sur une journée": "31mm",
        "Humidité": "83%",
        "Visibilité": "8km",
        "Couverture nuageuse": "42%",
        "Heure du lever du soleil": "06:25:00",
        "Heure du coucher du soleil": "21:39:00",
        "Durée du jour": "15:14:0",
        "L'avis de historique-meteo.net": ""
    },
    {
        "month": 8,
        "Température moyenne": "21°",
        "Température maximale": "23°",
        "Température minimale": "18°",
        "Température maximale record": "35°",
        "Température minimale record": "30°",
        "Vitesse du vent": "11km/h",
        "Température du vent": "19°",
        "Précipitations moyennes par jour": "2mm",
        "Record de précipitations sur une journée": "31mm",
        "Humidité": "79%",
        "Visibilité": "9km",
        "Couverture nuageuse": "26%",
        "Heure du lever du soleil": "07:03:00",
        "Heure du coucher du soleil": "21:14:00",
        "Durée du jour": "14:11:0",
        "L'avis de historique-meteo.net": ""
    },
    {
        "month": 9,
        "Température moyenne": "18°",
        "Température maximale": "21°",
        "Température minimale": "15°",
        "Température maximale record": "29°",
        "Température minimale record": "26°",
        "Vitesse du vent": "10km/h",
        "Température du vent": "15°",
        "Précipitations moyennes par jour": "2mm",
        "Record de précipitations sur une journée": "20mm",
        "Humidité": "84%",
        "Visibilité": "8km",
        "Couverture nuageuse": "35%",
        "Heure du lever du soleil": "07:40:00",
        "Heure du coucher du soleil": "20:23:00",
        "Durée du jour": "12:43:0",
        "L'avis de historique-meteo.net": ""
    },
    {
        "month": 10,
        "Température moyenne": "12°",
        "Température maximale": "14°",
        "Température minimale": "9°",
        "Température maximale record": "27°",
        "Température minimale record": "23°",
        "Vitesse du vent": "11km/h",
        "Température du vent": "9°",
        "Précipitations moyennes par jour": "1mm",
        "Record de précipitations sur une journée": "15mm",
        "Humidité": "85%",
        "Visibilité": "8km",
        "Couverture nuageuse": "36%",
        "Heure du lever du soleil": "08:22:00",
        "Heure du coucher du soleil": "19:25:00",
        "Durée du jour": "11:3:0",
        "L'avis de historique-meteo.net": ""
    },
    {
        "month": 11,
        "Température moyenne": "8°",
        "Température maximale": "10°",
        "Température minimale": "6°",
        "Température maximale record": "18°",
        "Température minimale record": "15°",
        "Vitesse du vent": "11km/h",
        "Température du vent": "5°",
        "Précipitations moyennes par jour": "1mm",
        "Record de précipitations sur une journée": "46mm",
        "Humidité": "84%",
        "Visibilité": "9km",
        "Couverture nuageuse": "29%",
        "Heure du lever du soleil": "09:04:00",
        "Heure du coucher du soleil": "18:30:00",
        "Durée du jour": "9:26:0",
        "L'avis de historique-meteo.net": ""
    },
    {
        "month": 12,
        "Température moyenne": "3°",
        "Température maximale": "5°",
        "Température minimale": "1°",
        "Température maximale record": "14°",
        "Température minimale record": "12°",
        "Vitesse du vent": "15km/h",
        "Température du vent": "-1°",
        "Précipitations moyennes par jour": "3mm",
        "Record de précipitations sur une journée": "30mm",
        "Humidité": "93%",
        "Visibilité": "8km",
        "Couverture nuageuse": "58%",
        "Heure du lever du soleil": "09:26:00",
        "Heure du coucher du soleil": "18:08:00",
        "Durée du jour": "8:42:0",
        "L'avis de historique-meteo.net": ""
    }
]